{
    "COMPort" : "COM4",
    "commands" : [
        {
            "brand" : "Samsung",
            "codes" : [
                {
                    "label" : "on",
                    "code" : "SAMSUNG(On)"
                },   
                {
                    "label" : "off",
                    "code" : "SAMSUNG(Off)"
                }
            ]
        },       
        {
            "brand" : "LG",
            "codes" : [
                {
                    "label" : "on",
                    "code" : "LG(on)"
                },   
                {
                    "label" : "off",
                    "code" : "LG(off)"
                }
            ]
        }
    ]
}